EESchema Schematic File Version 4
LIBS:vwm_breadboard-cache
EELAYER 30 0
EELAYER END
$Descr A4 11693 8268
encoding utf-8
Sheet 1 1
Title "VWM Breadboard"
Date ""
Rev "01"
Comp "Vent With Me"
Comment1 "Designed by: Abdallah El-Falou"
Comment2 ""
Comment3 ""
Comment4 ""
$EndDescr
$Comp
L Device:L SV1
U 1 1 5E82EA85
P 2050 1750
F 0 "SV1" H 2102 1796 50  0000 L CNN
F 1 "SOL" H 2102 1705 50  0000 L CNN
F 2 "" H 2050 1750 50  0001 C CNN
F 3 "~" H 2050 1750 50  0001 C CNN
	1    2050 1750
	1    0    0    -1  
$EndComp
$Comp
L power:+12V #PWR?
U 1 1 5E82F3BF
P 2050 1450
F 0 "#PWR?" H 2050 1300 50  0001 C CNN
F 1 "+12V" H 2065 1623 50  0000 C CNN
F 2 "" H 2050 1450 50  0001 C CNN
F 3 "" H 2050 1450 50  0001 C CNN
	1    2050 1450
	1    0    0    -1  
$EndComp
Wire Wire Line
	2050 1450 2050 1600
$Comp
L Device:D D?
U 1 1 5E82FCE5
P 1350 1750
F 0 "D?" V 1304 1829 50  0000 L CNN
F 1 "MUR460RLG" V 1395 1829 50  0000 L CNN
F 2 "" H 1350 1750 50  0001 C CNN
F 3 "~" H 1350 1750 50  0001 C CNN
	1    1350 1750
	0    1    1    0   
$EndComp
Connection ~ 2050 1600
Wire Wire Line
	1350 1900 2050 1900
Wire Wire Line
	1350 1600 2050 1600
$Comp
L Device:Q_NMOS_GDS Q?
U 1 1 5E833DFC
P 1950 2300
F 0 "Q?" H 2156 2346 50  0000 L CNN
F 1 "AOI4286" H 2156 2255 50  0000 L CNN
F 2 "" H 2150 2400 50  0001 C CNN
F 3 "~" H 1950 2300 50  0001 C CNN
	1    1950 2300
	1    0    0    -1  
$EndComp
Wire Wire Line
	1400 2300 1750 2300
Wire Wire Line
	2050 2100 2050 1900
Connection ~ 2050 1900
$Comp
L power:GND #PWR?
U 1 1 5E8365F0
P 2050 2500
F 0 "#PWR?" H 2050 2250 50  0001 C CNN
F 1 "GND" H 2055 2327 50  0000 C CNN
F 2 "" H 2050 2500 50  0001 C CNN
F 3 "" H 2050 2500 50  0001 C CNN
	1    2050 2500
	1    0    0    -1  
$EndComp
Text Label 1400 2300 0    50   ~ 0
sv1_ctrl
$Comp
L Device:L SV1b
U 1 1 5E83FF80
P 4100 1750
F 0 "SV1b" H 4153 1796 50  0000 L CNN
F 1 "SOL" H 4153 1705 50  0000 L CNN
F 2 "" H 4100 1750 50  0001 C CNN
F 3 "~" H 4100 1750 50  0001 C CNN
	1    4100 1750
	1    0    0    -1  
$EndComp
$Comp
L power:+12V #PWR?
U 1 1 5E83FF86
P 4100 1450
F 0 "#PWR?" H 4100 1300 50  0001 C CNN
F 1 "+12V" H 4115 1623 50  0000 C CNN
F 2 "" H 4100 1450 50  0001 C CNN
F 3 "" H 4100 1450 50  0001 C CNN
	1    4100 1450
	1    0    0    -1  
$EndComp
Wire Wire Line
	4100 1450 4100 1600
$Comp
L Device:D D?
U 1 1 5E83FF8D
P 3400 1750
F 0 "D?" V 3354 1829 50  0000 L CNN
F 1 "MUR460RLG" V 3445 1829 50  0000 L CNN
F 2 "" H 3400 1750 50  0001 C CNN
F 3 "~" H 3400 1750 50  0001 C CNN
	1    3400 1750
	0    1    1    0   
$EndComp
Connection ~ 4100 1600
Wire Wire Line
	3400 1900 4100 1900
Wire Wire Line
	3400 1600 4100 1600
Wire Wire Line
	3450 2300 3800 2300
Wire Wire Line
	4100 2100 4100 1900
Connection ~ 4100 1900
$Comp
L power:GND #PWR?
U 1 1 5E83FF9F
P 4100 2500
F 0 "#PWR?" H 4100 2250 50  0001 C CNN
F 1 "GND" H 4105 2327 50  0000 C CNN
F 2 "" H 4100 2500 50  0001 C CNN
F 3 "" H 4100 2500 50  0001 C CNN
	1    4100 2500
	1    0    0    -1  
$EndComp
Text Label 3450 2300 0    50   ~ 0
sv1b_ctrl
$Comp
L Device:L SV2
U 1 1 5E848D48
P 6100 5450
F 0 "SV2" H 6152 5496 50  0000 L CNN
F 1 "SOL" H 6152 5405 50  0000 L CNN
F 2 "" H 6100 5450 50  0001 C CNN
F 3 "~" H 6100 5450 50  0001 C CNN
	1    6100 5450
	1    0    0    -1  
$EndComp
$Comp
L power:+12V #PWR?
U 1 1 5E848D4E
P 6100 5150
F 0 "#PWR?" H 6100 5000 50  0001 C CNN
F 1 "+12V" H 6115 5323 50  0000 C CNN
F 2 "" H 6100 5150 50  0001 C CNN
F 3 "" H 6100 5150 50  0001 C CNN
	1    6100 5150
	1    0    0    -1  
$EndComp
Wire Wire Line
	6100 5150 6100 5300
$Comp
L Device:D D?
U 1 1 5E848D55
P 5400 5450
F 0 "D?" V 5354 5529 50  0000 L CNN
F 1 "MUR460RLG" V 5445 5529 50  0000 L CNN
F 2 "" H 5400 5450 50  0001 C CNN
F 3 "~" H 5400 5450 50  0001 C CNN
	1    5400 5450
	0    1    1    0   
$EndComp
Connection ~ 6100 5300
Wire Wire Line
	5400 5600 6100 5600
Wire Wire Line
	5400 5300 6100 5300
Wire Wire Line
	5450 6000 5800 6000
Wire Wire Line
	6100 5800 6100 5600
Connection ~ 6100 5600
$Comp
L power:GND #PWR?
U 1 1 5E848D67
P 6100 6200
F 0 "#PWR?" H 6100 5950 50  0001 C CNN
F 1 "GND" H 6105 6027 50  0000 C CNN
F 2 "" H 6100 6200 50  0001 C CNN
F 3 "" H 6100 6200 50  0001 C CNN
	1    6100 6200
	1    0    0    -1  
$EndComp
Text Label 5450 6000 0    50   ~ 0
sv2_ctrl
$Comp
L Device:L SV5
U 1 1 5E84BD53
P 7850 5450
F 0 "SV5" H 7902 5496 50  0000 L CNN
F 1 "SOL" H 7902 5405 50  0000 L CNN
F 2 "" H 7850 5450 50  0001 C CNN
F 3 "~" H 7850 5450 50  0001 C CNN
	1    7850 5450
	1    0    0    -1  
$EndComp
$Comp
L power:+12V #PWR?
U 1 1 5E84BD59
P 7850 5150
F 0 "#PWR?" H 7850 5000 50  0001 C CNN
F 1 "+12V" H 7865 5323 50  0000 C CNN
F 2 "" H 7850 5150 50  0001 C CNN
F 3 "" H 7850 5150 50  0001 C CNN
	1    7850 5150
	1    0    0    -1  
$EndComp
Wire Wire Line
	7850 5150 7850 5300
$Comp
L Device:D D?
U 1 1 5E84BD60
P 7150 5450
F 0 "D?" V 7104 5529 50  0000 L CNN
F 1 "MUR460RLG" V 7195 5529 50  0000 L CNN
F 2 "" H 7150 5450 50  0001 C CNN
F 3 "~" H 7150 5450 50  0001 C CNN
	1    7150 5450
	0    1    1    0   
$EndComp
Connection ~ 7850 5300
Wire Wire Line
	7150 5600 7850 5600
Wire Wire Line
	7150 5300 7850 5300
Wire Wire Line
	7200 6000 7550 6000
Wire Wire Line
	7850 5800 7850 5600
Connection ~ 7850 5600
$Comp
L power:GND #PWR?
U 1 1 5E84BD72
P 7850 6200
F 0 "#PWR?" H 7850 5950 50  0001 C CNN
F 1 "GND" H 7855 6027 50  0000 C CNN
F 2 "" H 7850 6200 50  0001 C CNN
F 3 "" H 7850 6200 50  0001 C CNN
	1    7850 6200
	1    0    0    -1  
$EndComp
Text Label 7200 6000 0    50   ~ 0
sv5_ctrl
$Comp
L Device:Q_NMOS_GDS Q?
U 1 1 5E84BFFB
P 4000 2300
F 0 "Q?" H 4206 2346 50  0000 L CNN
F 1 "AOI4286" H 4206 2255 50  0000 L CNN
F 2 "" H 4200 2400 50  0001 C CNN
F 3 "~" H 4000 2300 50  0001 C CNN
	1    4000 2300
	1    0    0    -1  
$EndComp
$Comp
L Device:Q_NMOS_GDS Q?
U 1 1 5E84CA3B
P 6000 6000
F 0 "Q?" H 6206 6046 50  0000 L CNN
F 1 "AOI4286" H 6206 5955 50  0000 L CNN
F 2 "" H 6200 6100 50  0001 C CNN
F 3 "~" H 6000 6000 50  0001 C CNN
	1    6000 6000
	1    0    0    -1  
$EndComp
$Comp
L Device:Q_NMOS_GDS Q?
U 1 1 5E84E0C4
P 7750 6000
F 0 "Q?" H 7956 6046 50  0000 L CNN
F 1 "AOI4286" H 7956 5955 50  0000 L CNN
F 2 "" H 7950 6100 50  0001 C CNN
F 3 "~" H 7750 6000 50  0001 C CNN
	1    7750 6000
	1    0    0    -1  
$EndComp
$Comp
L Connector_Generic:Conn_01x04 PS1
U 1 1 5E85049A
P 2150 3450
F 0 "PS1" H 2230 3442 50  0000 L CNN
F 1 "M3021-000005-100PG" H 2230 3351 50  0000 L CNN
F 2 "" H 2150 3450 50  0001 C CNN
F 3 "~" H 2150 3450 50  0001 C CNN
	1    2150 3450
	1    0    0    -1  
$EndComp
Wire Wire Line
	1200 3350 1950 3350
Wire Wire Line
	1950 3450 1200 3450
Wire Wire Line
	1950 3550 1200 3550
Wire Wire Line
	1950 3650 1200 3650
Wire Wire Line
	1200 3350 1200 3300
Wire Wire Line
	1200 3650 1200 3700
$Comp
L power:GND #PWR?
U 1 1 5E85726A
P 1200 3700
F 0 "#PWR?" H 1200 3450 50  0001 C CNN
F 1 "GND" H 1205 3527 50  0000 C CNN
F 2 "" H 1200 3700 50  0001 C CNN
F 3 "" H 1200 3700 50  0001 C CNN
	1    1200 3700
	1    0    0    -1  
$EndComp
Text Notes 1700 3350 0    50   ~ 0
red
Text Notes 1700 3650 0    50   ~ 0
black
Text Notes 1700 3450 0    50   ~ 0
green
Wire Wire Line
	1200 3550 1200 3650
Connection ~ 1200 3650
Text Notes 1700 3550 0    50   ~ 0
white
Text Label 1200 3450 0    50   ~ 0
o2_ps_vout
Text Notes 2250 1050 0    118  ~ 0
GAS SUPPLIES
$Comp
L Connector_Generic:Conn_01x04 PS1b
U 1 1 5E85DC49
P 4400 3450
F 0 "PS1b" H 4480 3442 50  0000 L CNN
F 1 "M3021-000005-100PG" H 4480 3351 50  0000 L CNN
F 2 "" H 4400 3450 50  0001 C CNN
F 3 "~" H 4400 3450 50  0001 C CNN
	1    4400 3450
	1    0    0    -1  
$EndComp
Wire Wire Line
	3450 3350 4200 3350
Wire Wire Line
	4200 3450 3450 3450
Wire Wire Line
	4200 3550 3450 3550
Wire Wire Line
	4200 3650 3450 3650
Wire Wire Line
	3450 3350 3450 3300
Wire Wire Line
	3450 3650 3450 3700
$Comp
L power:GND #PWR?
U 1 1 5E85DC55
P 3450 3700
F 0 "#PWR?" H 3450 3450 50  0001 C CNN
F 1 "GND" H 3455 3527 50  0000 C CNN
F 2 "" H 3450 3700 50  0001 C CNN
F 3 "" H 3450 3700 50  0001 C CNN
	1    3450 3700
	1    0    0    -1  
$EndComp
Text Notes 3950 3350 0    50   ~ 0
red
Text Notes 3950 3650 0    50   ~ 0
black
Text Notes 3950 3450 0    50   ~ 0
green
Wire Wire Line
	3450 3550 3450 3650
Connection ~ 3450 3650
Text Notes 3950 3550 0    50   ~ 0
white
Text Label 3450 3450 0    50   ~ 0
air_ps_vout
Text Notes 1750 4000 0    50   ~ 0
Output:\n0 - 100 mV\n0 - 100 psig
$Comp
L power:+5V #PWR?
U 1 1 5E85F086
P 1200 3300
F 0 "#PWR?" H 1200 3150 50  0001 C CNN
F 1 "+5V" H 1215 3473 50  0000 C CNN
F 2 "" H 1200 3300 50  0001 C CNN
F 3 "" H 1200 3300 50  0001 C CNN
	1    1200 3300
	1    0    0    -1  
$EndComp
$Comp
L power:+5V #PWR?
U 1 1 5E85FE03
P 3450 3300
F 0 "#PWR?" H 3450 3150 50  0001 C CNN
F 1 "+5V" H 3465 3473 50  0000 C CNN
F 2 "" H 3450 3300 50  0001 C CNN
F 3 "" H 3450 3300 50  0001 C CNN
	1    3450 3300
	1    0    0    -1  
$EndComp
$Comp
L Connector_Generic:Conn_02x07_Counter_Clockwise PS2
U 1 1 5E860F8C
P 1700 5550
F 0 "PS2" H 1750 6067 50  0000 C CNN
F 1 "NPA-500B-005D" H 1750 5976 50  0000 C CNN
F 2 "" H 1700 5550 50  0001 C CNN
F 3 "~" H 1700 5550 50  0001 C CNN
	1    1700 5550
	1    0    0    -1  
$EndComp
Text Notes 1550 4750 0    118  ~ 0
TANK
Text Notes 1200 6300 0    50   ~ 0
Power 3.3V, Output 0.5 - 3V\nPower 5V, Output 0.5 - 4.5V
NoConn ~ 1500 5250
NoConn ~ 1500 5350
NoConn ~ 1500 5450
NoConn ~ 1500 5550
NoConn ~ 1500 5650
NoConn ~ 1500 5850
NoConn ~ 2000 5650
NoConn ~ 2000 5550
NoConn ~ 2000 5450
NoConn ~ 2000 5350
NoConn ~ 2000 5250
Wire Wire Line
	1500 5750 1100 5750
Wire Wire Line
	2000 5750 2450 5750
Wire Wire Line
	2000 5850 2450 5850
Wire Wire Line
	1100 5750 1100 5800
Wire Wire Line
	2450 5750 2450 5700
Text Label 2100 5850 0    50   ~ 0
tank_ps_vout
$Comp
L power:+3V3 #PWR?
U 1 1 5E86CBCF
P 2450 5700
F 0 "#PWR?" H 2450 5550 50  0001 C CNN
F 1 "+3V3" H 2465 5873 50  0000 C CNN
F 2 "" H 2450 5700 50  0001 C CNN
F 3 "" H 2450 5700 50  0001 C CNN
	1    2450 5700
	1    0    0    -1  
$EndComp
$Comp
L power:GND #PWR?
U 1 1 5E86D7C0
P 1100 5800
F 0 "#PWR?" H 1100 5550 50  0001 C CNN
F 1 "GND" H 1105 5627 50  0000 C CNN
F 2 "" H 1100 5800 50  0001 C CNN
F 3 "" H 1100 5800 50  0001 C CNN
	1    1100 5800
	1    0    0    -1  
$EndComp
Text Notes 4000 4700 0    118  ~ 0
INSPIRATORY PATH
$Comp
L Connector_Generic:Conn_02x07_Counter_Clockwise PS4
U 1 1 5E872AE3
P 4050 5500
F 0 "PS4" H 4100 6017 50  0000 C CNN
F 1 "NPA-500B-005D" H 4100 5926 50  0000 C CNN
F 2 "" H 4050 5500 50  0001 C CNN
F 3 "~" H 4050 5500 50  0001 C CNN
	1    4050 5500
	1    0    0    -1  
$EndComp
Text Notes 3550 6500 0    50   ~ 0
Power 3.3V, Output 0.5 - 3V\nPower 5V, Output 0.5 - 4.5V\n\nGauge: Airway pressure\nDifferential: Venturi flow sensor
NoConn ~ 3850 5200
NoConn ~ 3850 5300
NoConn ~ 3850 5400
NoConn ~ 3850 5500
NoConn ~ 3850 5600
NoConn ~ 3850 5800
NoConn ~ 4350 5600
NoConn ~ 4350 5500
NoConn ~ 4350 5400
NoConn ~ 4350 5300
NoConn ~ 4350 5200
Wire Wire Line
	3850 5700 3450 5700
Wire Wire Line
	4350 5700 4800 5700
Wire Wire Line
	4350 5800 4800 5800
Wire Wire Line
	3450 5700 3450 5750
Wire Wire Line
	4800 5700 4800 5650
Text Label 4450 5800 0    50   ~ 0
airway_ps_vout
$Comp
L power:+3V3 #PWR?
U 1 1 5E872AFB
P 4800 5650
F 0 "#PWR?" H 4800 5500 50  0001 C CNN
F 1 "+3V3" H 4815 5823 50  0000 C CNN
F 2 "" H 4800 5650 50  0001 C CNN
F 3 "" H 4800 5650 50  0001 C CNN
	1    4800 5650
	1    0    0    -1  
$EndComp
$Comp
L power:GND #PWR?
U 1 1 5E872B01
P 3450 5750
F 0 "#PWR?" H 3450 5500 50  0001 C CNN
F 1 "GND" H 3455 5577 50  0000 C CNN
F 2 "" H 3450 5750 50  0001 C CNN
F 3 "" H 3450 5750 50  0001 C CNN
	1    3450 5750
	1    0    0    -1  
$EndComp
Text Notes 4000 4000 0    50   ~ 0
Output:\n0 - 100 mV\n0 - 100 psig
Text Notes 7050 4700 0    118  ~ 0
EXPIRATORY PATH
Text Notes 7300 1100 0    118  ~ 0
POWER
$Comp
L Device:Battery BT?
U 1 1 5E8A3506
P 6250 2250
F 0 "BT?" H 6358 2296 50  0000 L CNN
F 1 "D Cell x8" H 6358 2205 50  0000 L CNN
F 2 "" V 6250 2310 50  0001 C CNN
F 3 "~" V 6250 2310 50  0001 C CNN
	1    6250 2250
	1    0    0    -1  
$EndComp
$Comp
L Device:D_Schottky D?
U 1 1 5E8A4BFE
P 6250 1700
F 0 "D?" V 6204 1779 50  0000 L CNN
F 1 "STPS10L25D" V 6295 1779 50  0000 L CNN
F 2 "" H 6250 1700 50  0001 C CNN
F 3 "~" H 6250 1700 50  0001 C CNN
	1    6250 1700
	0    1    1    0   
$EndComp
$Comp
L Connector:Barrel_Jack J?
U 1 1 5E8A9E07
P 5550 2850
F 0 "J?" V 5653 2670 50  0000 R CNN
F 1 "Barrel_Jack" V 5562 2670 50  0000 R CNN
F 2 "" H 5600 2810 50  0001 C CNN
F 3 "~" H 5600 2810 50  0001 C CNN
	1    5550 2850
	0    -1   -1   0   
$EndComp
$Comp
L Device:D_Schottky D?
U 1 1 5E8AB8FB
P 5450 1700
F 0 "D?" V 5404 1779 50  0000 L CNN
F 1 "STPS10L25D" V 5495 1779 50  0000 L CNN
F 2 "" H 5450 1700 50  0001 C CNN
F 3 "~" H 5450 1700 50  0001 C CNN
	1    5450 1700
	0    1    1    0   
$EndComp
$Comp
L power:GND #PWR?
U 1 1 5E8B0211
P 6100 2550
F 0 "#PWR?" H 6100 2300 50  0001 C CNN
F 1 "GND" H 6105 2377 50  0000 C CNN
F 2 "" H 6100 2550 50  0001 C CNN
F 3 "" H 6100 2550 50  0001 C CNN
	1    6100 2550
	1    0    0    -1  
$EndComp
Wire Wire Line
	6250 2450 6250 2550
$Comp
L Device:R R?
U 1 1 5E8B41B3
P 6800 2050
F 0 "R?" V 6593 2050 50  0000 C CNN
F 1 "50K" V 6684 2050 50  0000 C CNN
F 2 "" V 6730 2050 50  0001 C CNN
F 3 "~" H 6800 2050 50  0001 C CNN
	1    6800 2050
	0    1    1    0   
$EndComp
$Comp
L Device:R R?
U 1 1 5E8B4EAF
P 7050 2350
F 0 "R?" H 6980 2304 50  0000 R CNN
F 1 "200K" H 6980 2395 50  0000 R CNN
F 2 "" V 6980 2350 50  0001 C CNN
F 3 "~" H 7050 2350 50  0001 C CNN
	1    7050 2350
	-1   0    0    1   
$EndComp
Wire Wire Line
	6950 2050 7050 2050
Wire Wire Line
	7050 2050 7050 2200
Wire Wire Line
	7050 2050 7350 2050
Connection ~ 7050 2050
Text Label 7100 2050 0    50   ~ 0
batt_vout
Wire Wire Line
	6250 1850 6250 2050
Wire Wire Line
	6650 2050 6250 2050
Connection ~ 6250 2050
$Comp
L power:+12V #PWR?
U 1 1 5E8C3AA1
P 7700 1500
F 0 "#PWR?" H 7700 1350 50  0001 C CNN
F 1 "+12V" H 7715 1673 50  0000 C CNN
F 2 "" H 7700 1500 50  0001 C CNN
F 3 "" H 7700 1500 50  0001 C CNN
	1    7700 1500
	1    0    0    -1  
$EndComp
$Comp
L Device:CP1 C?
U 1 1 5E8C4640
P 7700 2000
F 0 "C?" H 7815 2046 50  0000 L CNN
F 1 "6800uF" H 7815 1955 50  0000 L CNN
F 2 "" H 7700 2000 50  0001 C CNN
F 3 "~" H 7700 2000 50  0001 C CNN
	1    7700 2000
	1    0    0    -1  
$EndComp
Wire Wire Line
	7700 1850 7700 1550
$Comp
L Regulator_Linear:MCP1700-3302E_TO92 U?
U 1 1 5E8D8C63
P 9100 2000
F 0 "U?" H 9100 1758 50  0000 C CNN
F 1 "MCP1700-3302E_TO92" H 9100 1849 50  0000 C CNN
F 2 "Package_TO_SOT_THT:TO-92_Inline" H 9100 1800 50  0001 C CIN
F 3 "http://ww1.microchip.com/downloads/en/DeviceDoc/20001826D.pdf" H 9100 2000 50  0001 C CNN
	1    9100 2000
	1    0    0    1   
$EndComp
$Comp
L power:GND #PWR?
U 1 1 5E8E0920
P 9100 2300
F 0 "#PWR?" H 9100 2050 50  0001 C CNN
F 1 "GND" H 9105 2127 50  0000 C CNN
F 2 "" H 9100 2300 50  0001 C CNN
F 3 "" H 9100 2300 50  0001 C CNN
	1    9100 2300
	1    0    0    -1  
$EndComp
Wire Wire Line
	8800 2000 8500 2000
Wire Wire Line
	8500 2000 8500 1900
Wire Wire Line
	9800 2000 9800 1900
$Comp
L power:+5V #PWR?
U 1 1 5E8E3ACE
P 8500 1900
F 0 "#PWR?" H 8500 1750 50  0001 C CNN
F 1 "+5V" H 8515 2073 50  0000 C CNN
F 2 "" H 8500 1900 50  0001 C CNN
F 3 "" H 8500 1900 50  0001 C CNN
	1    8500 1900
	1    0    0    -1  
$EndComp
Text Notes 8150 1650 0    50   ~ 0
From MCU board\n(need 5V reg!)
$Comp
L power:+3V3 #PWR?
U 1 1 5E8E69E5
P 9800 1900
F 0 "#PWR?" H 9800 1750 50  0001 C CNN
F 1 "+3V3" H 9815 2073 50  0000 C CNN
F 2 "" H 9800 1900 50  0001 C CNN
F 3 "" H 9800 1900 50  0001 C CNN
	1    9800 1900
	1    0    0    -1  
$EndComp
$Comp
L Device:C C?
U 1 1 5E8E749A
P 9800 2150
F 0 "C?" H 9915 2196 50  0000 L CNN
F 1 "1uF" H 9915 2105 50  0000 L CNN
F 2 "" H 9838 2000 50  0001 C CNN
F 3 "~" H 9800 2150 50  0001 C CNN
	1    9800 2150
	1    0    0    -1  
$EndComp
Connection ~ 9800 2000
$Comp
L power:GND #PWR?
U 1 1 5E8E85DC
P 9800 2300
F 0 "#PWR?" H 9800 2050 50  0001 C CNN
F 1 "GND" H 9805 2127 50  0000 C CNN
F 2 "" H 9800 2300 50  0001 C CNN
F 3 "" H 9800 2300 50  0001 C CNN
	1    9800 2300
	1    0    0    -1  
$EndComp
$Comp
L Device:LED D?
U 1 1 5E8E8EE2
P 10300 2150
F 0 "D?" V 10339 2033 50  0000 R CNN
F 1 "LTL-10223W" V 10248 2033 50  0000 R CNN
F 2 "" H 10300 2150 50  0001 C CNN
F 3 "~" H 10300 2150 50  0001 C CNN
	1    10300 2150
	0    -1   -1   0   
$EndComp
$Comp
L Device:R R?
U 1 1 5E8EA671
P 10300 2550
F 0 "R?" H 10230 2504 50  0000 R CNN
F 1 "200" H 10230 2595 50  0000 R CNN
F 2 "" V 10230 2550 50  0001 C CNN
F 3 "~" H 10300 2550 50  0001 C CNN
	1    10300 2550
	-1   0    0    1   
$EndComp
Wire Wire Line
	9400 2000 9800 2000
Wire Wire Line
	10300 2000 9800 2000
Wire Wire Line
	10300 2300 10300 2400
$Comp
L power:GND #PWR?
U 1 1 5E8EF2CB
P 10300 2700
F 0 "#PWR?" H 10300 2450 50  0001 C CNN
F 1 "GND" H 10305 2527 50  0000 C CNN
F 2 "" H 10300 2700 50  0001 C CNN
F 3 "" H 10300 2700 50  0001 C CNN
	1    10300 2700
	1    0    0    -1  
$EndComp
Text Notes 10100 1950 0    50   ~ 0
Red PWR LED
Wire Wire Line
	6100 2550 6250 2550
Wire Wire Line
	5450 1850 5450 2550
Text Notes 9750 6250 0    50   ~ 0
Todo:\n- Ambient Temp/Humidity sensor\n- STM32 Nucleo board\n- UI (buttons, display, speaker)
$Comp
L Switch:SW_SPST SW?
U 1 1 5E90DB2F
P 6950 1550
F 0 "SW?" H 6950 1785 50  0000 C CNN
F 1 "SW_SPST" H 6950 1694 50  0000 C CNN
F 2 "" H 6950 1550 50  0001 C CNN
F 3 "~" H 6950 1550 50  0001 C CNN
	1    6950 1550
	1    0    0    -1  
$EndComp
Wire Wire Line
	6250 1550 5450 1550
Wire Wire Line
	6750 1550 6250 1550
Connection ~ 6250 1550
Wire Wire Line
	5650 2550 6100 2550
Connection ~ 6100 2550
Wire Wire Line
	6250 2550 7050 2550
Wire Wire Line
	7050 2550 7050 2500
Connection ~ 6250 2550
Wire Wire Line
	7050 2550 7700 2550
Wire Wire Line
	7700 2550 7700 2150
Connection ~ 7050 2550
Wire Wire Line
	7150 1550 7700 1550
Connection ~ 7700 1550
Wire Wire Line
	7700 1550 7700 1500
$EndSCHEMATC
